{
	"name": "DynamicPageList3",
	"version": "3.3.3",
	"author": [
		"[http://de.wikipedia.org/wiki/Benutzer:Algorithmix Gero Scholz]",
		"Alexia E. Smith"
	],
	"url": "https://www.mediawiki.org/wiki/Extension:DynamicPageList3",
	"descriptionmsg": "dpl-desc",
	"license-name": "GPL-2.0-or-later",
	"type": "parserhook",
	"requires": {
		"MediaWiki": ">= 1.27.4"
	},
	"GroupPermissions": {
		"sysop": {
			"dpl_param_update_rules": true,
			"dpl_param_delete_rules": true
		}
	},
	"AvailableRights": [
		"dpl_param_update_rules",
		"dpl_param_delete_rules"
	],
	"MessagesDirs": {
		"DynamicPageList": [
			"i18n"
		]
	},
	"ExtensionMessagesFiles": {
		"DynamicPageListMagic": "DynamicPageList.i18n.magic.php"
	},
	"AutoloadClasses": {
		"DPL\\Article": "classes/Article.php",
		"DPL\\Config": "classes/Config.php",
		"DPL\\DB\\CreateTemplateUpdateMaintenance": "classes/db/CreateTemplateUpdateMaintenance.php",
		"DPL\\Heading\\DefinitionHeading": "classes/heading/DefinitionHeading.php",
		"DPL\\Heading\\Heading": "classes/heading/Heading.php",
		"DPL\\Heading\\OrderedHeading": "classes/heading/OrderedHeading.php",
		"DPL\\Heading\\TieredHeading": "classes/heading/TieredHeading.php",
		"DPL\\Heading\\UnorderedHeading": "classes/heading/UnorderedHeading.php",
		"DPL\\Lister\\CategoryList": "classes/lister/CategoryList.php",
		"DPL\\Lister\\DefinitionList": "classes/lister/DefinitionList.php",
		"DPL\\Lister\\GalleryList": "classes/lister/GalleryList.php",
		"DPL\\Lister\\InlineList": "classes/lister/InlineList.php",
		"DPL\\Lister\\Lister": "classes/lister/Lister.php",
		"DPL\\Lister\\OrderedList": "classes/lister/OrderedList.php",
		"DPL\\Lister\\SubPageList": "classes/lister/SubPageList.php",
		"DPL\\Lister\\UnorderedList": "classes/lister/UnorderedList.php",
		"DPL\\Lister\\UserFormatList": "classes/lister/UserFormatList.php",
		"DPL\\Logger": "classes/Logger.php",
		"DPL\\LST": "classes/LST.php",
		"DPL\\Parameters": "classes/Parameters.php",
		"DPL\\ParametersData": "classes/ParametersData.php",
		"DPL\\Parse": "classes/Parse.php",
		"DPL\\Query": "classes/Query.php",
		"DPL\\UpdateArticle": "classes/UpdateArticle.php",
		"DPL\\Variables": "classes/Variables.php",
		"DynamicPageListHooks": "DynamicPageListHooks.php"
	},
	"Hooks": {
		"ParserFirstCallInit": [
			"DynamicPageListHooks::onParserFirstCallInit"
		],
		"LoadExtensionSchemaUpdates": [
			"DynamicPageListHooks::onLoadExtensionSchemaUpdates"
		]
	},
	"config": {
		"DplSettings": {
			"allowedNamespaces": null,
			"allowUnlimitedCategories": false,
			"allowUnlimitedResults": false,
			"behavingLikeIntersection": false,
			"categoryStyleListCutoff": 6,
			"fixedCategories": [],
			"functionalRichness": 3,
			"maxCategoryCount": 4,
			"minCategoryCount": 0,
			"maxResultCount": 500,
			"recursiveTagParse": false,
			"runFromProtectedPagesOnly": false,
			"handleSectionTag": false
		}
	},
	"TrackingCategories": [
		"dpl-tag-tracking-category",
		"dpl-intersection-tracking-category",
		"dpl-parserfunc-tracking-category",
		"dplnum-parserfunc-tracking-category",
		"dplvar-parserfunc-tracking-category",
		"dplreplace-parserfunc-tracking-category",
		"dplchapter-parserfunc-tracking-category",
		"dplmatrix-parserfunc-tracking-category"
	],
	"callback": "DynamicPageListHooks::onRegistration",
	"manifest_version": 1
}
